{
  "$schema": "https://raw.githubusercontent.com/jetify-com/devbox/0.10.5/.schema/devbox.schema.json",
  "packages": [
    "nodejs@latest",
  ],
  "env": {
    "TMUX": "1"
  },
  "shell": {
    "init_hook": [
      "npm install --silence spellchecker-cli",
    ],
    "scripts": {
      "spell-checker": [
          "npx spellchecker \\",
               "--dictionaries spellchecker-ignore.txt \\",
               "--language en-GB \\",
               "--plugins spell \\",
               "     indefinite-article \\",
               "     frontmatter \\",
               "     syntax-urls \\",
               "--frontmatter-keys title \\",
               "--files docs/templates/*.md",
      ],
    },
  },
}
